﻿{
  "Descriptor": {
    "UId": "9d21411b-9481-4cee-8df4-d169f19f801e",
    "Name": "AccountPageV2",
    "ModifiedOnUtc": "\/Date(1684728200000)\/",
    "Parent": {
      "UId": "f5edc79d-8d39-4e51-a255-57ccf3f1349e",
      "Name": "AccountPageV2"
    },
    "ExtendParent": true,
    "ManagerName": "ClientUnitSchemaManager",
    "Caption": "Account edit page",
    "DependsOn": []
  }
}